{
    "content": [
        {
            "id": 8242,
            "nome": "ANA JULIA SANDES SANTOS",
            "idade": 13,
            "sexo": "FEMININO",
            "vivo": true,
            "urlFoto": null,
            "ultimaOcorrencia": {
                "dtDesaparecimento": "2024-03-06T08:00:00",
                "dataLocalizacao": null,
                "encontradoVivo": true,
                "localDesaparecimentoConcat": "JARDIM CALIFORNIA - Cuiabá/MT",
                "ocorrenciaEntrevDesapDTO": null,
                "listaCartaz": null,
                "ocoId": 4026
            }
        },
        {
            "id": 8245,
            "nome": "ALESSANDRA VIANA DA SILVA",
            "idade": 13,
            "sexo": "FEMININO",
            "vivo": true,
            "urlFoto": null,
            "ultimaOcorrencia": {
                "dtDesaparecimento": "2024-03-06T08:00:00",
                "dataLocalizacao": null,
                "encontradoVivo": true,
                "localDesaparecimentoConcat": "JARDIM CALIFORNIA - Cuiabá/MT",
                "ocorrenciaEntrevDesapDTO": null,
                "listaCartaz": null,
                "ocoId": 4027
            }
        },
        {
            "id": 4874,
            "nome": "ISABELLY KAMILLY ABADE NEVES",
            "idade": 15,
            "sexo": "FEMININO",
            "vivo": true,
            "urlFoto": "https://s3.pjc.mt.gov.br/abitus.foto-pessoa/2024/03/6c2afddb4d4d77ff263b09399ce9733215931c6caefd76d3dd9337d2000a8903-1709742251393.jpg?X-Amz-Algorithm=AWS4-HMAC-SHA256&X-Amz-Credential=pjcmtminio%2F20240307%2Fus-east-1%2Fs3%2Faws4_request&X-Amz-Date=20240307T121329Z&X-Amz-Expires=600&X-Amz-SignedHeaders=host&X-Amz-Signature=c3de934839b6e5a4ad76a3288693a6955aa660d6ed209d932a32933003ed51e0",
            "ultimaOcorrencia": {
                "dtDesaparecimento": "2024-03-05T06:15:00",
                "dataLocalizacao": null,
                "encontradoVivo": true,
                "localDesaparecimentoConcat": "RESIDENCIAL NOVA CANAA - Cuiabá/MT",
                "ocorrenciaEntrevDesapDTO": {
                    "informacao": "A vitima saiu para ir à escola porém não chegou ao local.Familiares buscam por noticias.",
                    "vestimentasDesaparecido": "Camiseta azul da escola, calça jeans e chinelo branco."
                },
                "listaCartaz": null,
                "ocoId": 4024
            }
        },
        {
            "id": 8238,
            "nome": "ALESSANDRO DA SILVA",
            "idade": 25,
            "sexo": "MASCULINO",
            "vivo": true,
            "urlFoto": "https://s3.pjc.mt.gov.br/abitus.foto-pessoa/2024/03/50a1464cf59eb4eb94ba5b2e95e66cb3a0d79c97131618a05e4dda2f3240f3a1-1709751746016.jpg?X-Amz-Algorithm=AWS4-HMAC-SHA256&X-Amz-Credential=pjcmtminio%2F20240307%2Fus-east-1%2Fs3%2Faws4_request&X-Amz-Date=20240307T121329Z&X-Amz-Expires=600&X-Amz-SignedHeaders=host&X-Amz-Signature=74d548562f521dd72d64be5b157a3b6a8e01b177276ca96206200c65d1fb0df8",
            "ultimaOcorrencia": {
                "dtDesaparecimento": "2024-03-03T00:00:00",
                "dataLocalizacao": null,
                "encontradoVivo": true,
                "localDesaparecimentoConcat": "IKARAY - Várzea Grande/MT",
                "ocorrenciaEntrevDesapDTO": {
                    "informacao": "A vítima está desaparecida desde a data acima informada, familiares buscam por notícias.",
                    "vestimentasDesaparecido": "NÃO INFORMADO. "
                },
                "listaCartaz": null,
                "ocoId": 4025
            }
        },
        {
            "id": 8185,
            "nome": "VALDETE DA SILVA VALE",
            "idade": 52,
            "sexo": "FEMININO",
            "vivo": true,
            "urlFoto": null,
            "ultimaOcorrencia": {
                "dtDesaparecimento": "2024-03-01T08:30:00",
                "dataLocalizacao": null,
                "encontradoVivo": true,
                "localDesaparecimentoConcat": "PARQUE SAGRADA FAMILIA - Rondonópolis/MT",
                "ocorrenciaEntrevDesapDTO": null,
                "listaCartaz": null,
                "ocoId": 4001
            }
        },
        {
            "id": 8194,
            "nome": "VALDINEIA DA SILVA QUEIROZ",
            "idade": 44,
            "sexo": "FEMININO",
            "vivo": true,
            "urlFoto": "https://s3.pjc.mt.gov.br/abitus.foto-pessoa/2024/03/77abd0fe7eafd47501dc29612c5c5a1279f899ca4c882a920ddc914d607b2bef-1709562236842.jpg?X-Amz-Algorithm=AWS4-HMAC-SHA256&X-Amz-Credential=pjcmtminio%2F20240307%2Fus-east-1%2Fs3%2Faws4_request&X-Amz-Date=20240307T121329Z&X-Amz-Expires=600&X-Amz-SignedHeaders=host&X-Amz-Signature=9c307cdbce0c19101713b0060275833a955296a7341537f817ece52c98fb7c57",
            "ultimaOcorrencia": {
                "dtDesaparecimento": "2024-02-29T23:45:00",
                "dataLocalizacao": null,
                "encontradoVivo": true,
                "localDesaparecimentoConcat": "COXIPO DA PONTE  - Cuiabá/MT",
                "ocorrenciaEntrevDesapDTO": {
                    "informacao": "A vitima esta desaparecida desde a data informada. Familiares estão preocupados e buscam por noticias.",
                    "vestimentasDesaparecido": "NÃO INFORMADO. "
                },
                "listaCartaz": null,
                "ocoId": 4004
            }
        },
        {
            "id": 8231,
            "nome": "MARIO DE ARRUDA",
            "idade": 22,
            "sexo": "MASCULINO",
            "vivo": true,
            "urlFoto": "https://s3.pjc.mt.gov.br/abitus.foto-pessoa/2024/03/7b85be2a423f7b8175a99f3a0718ec8f772d78ee11cfd9735a3821ebe6e68974-1709670115408.jpg?X-Amz-Algorithm=AWS4-HMAC-SHA256&X-Amz-Credential=pjcmtminio%2F20240307%2Fus-east-1%2Fs3%2Faws4_request&X-Amz-Date=20240307T121329Z&X-Amz-Expires=600&X-Amz-SignedHeaders=host&X-Amz-Signature=eae736fc9de3a89b437395d43c053005695fb0247c113bcaf49031f4021f2939",
            "ultimaOcorrencia": {
                "dtDesaparecimento": "2024-02-29T16:00:00",
                "dataLocalizacao": null,
                "encontradoVivo": true,
                "localDesaparecimentoConcat": "SAO MATHEUS - Várzea Grande/MT",
                "ocorrenciaEntrevDesapDTO": {
                    "informacao": "A vítima saiu de casa sem dizer para onde iria e até o momento não retornou, familiares buscam por notícias.",
                    "vestimentasDesaparecido": "NÃO INFORMADO. "
                },
                "listaCartaz": null,
                "ocoId": 4020
            }
        },
        {
            "id": 8202,
            "nome": "JOÃO RODRIGUES DOS SANTOS",
            "idade": 61,
            "sexo": "MASCULINO",
            "vivo": true,
            "urlFoto": "https://s3.pjc.mt.gov.br/abitus.foto-pessoa/2024/03/22023c9ecce1a0745925a23aea6fa72ed7a80138a5cf42c4d31fd7616472eada-1709566435798.jpg?X-Amz-Algorithm=AWS4-HMAC-SHA256&X-Amz-Credential=pjcmtminio%2F20240307%2Fus-east-1%2Fs3%2Faws4_request&X-Amz-Date=20240307T121329Z&X-Amz-Expires=600&X-Amz-SignedHeaders=host&X-Amz-Signature=58b8229f56e0c7e7a48532956b598ca053c9a87b5a16c5b5ea3f304c5e47068a",
            "ultimaOcorrencia": {
                "dtDesaparecimento": "2024-02-29T13:20:00",
                "dataLocalizacao": null,
                "encontradoVivo": true,
                "localDesaparecimentoConcat": "CENTRO POLÍTICO ADMINISTRATIVO, CUIABÁ - MT - Cuiabá/MT",
                "ocorrenciaEntrevDesapDTO": {
                    "informacao": "A vitima evadiu-se do hospital Adauto Botelho e até momento nao foi localizado. Familiares estão preocupados e buscam por noticias.",
                    "vestimentasDesaparecido": "Roupa com identificação do ciaps 3 Adalto Botelho cor clara."
                },
                "listaCartaz": null,
                "ocoId": 4007
            }
        },
        {
            "id": 8148,
            "nome": "FERNANDA IARA PEREIRA DE PAULA",
            "idade": 16,
            "sexo": "FEMININO",
            "vivo": true,
            "urlFoto": "https://s3.pjc.mt.gov.br/abitus.foto-pessoa/2024/02/896511541221370e7ab75ab0b7015b9fe820d02469af1cc23e005cb8290e8fae-1708977849000.png?X-Amz-Algorithm=AWS4-HMAC-SHA256&X-Amz-Credential=pjcmtminio%2F20240307%2Fus-east-1%2Fs3%2Faws4_request&X-Amz-Date=20240307T121329Z&X-Amz-Expires=600&X-Amz-SignedHeaders=host&X-Amz-Signature=ab2a3b21b2fe9514a606897898555949ff213612028f7870103fe0c971b8a89d",
            "ultimaOcorrencia": {
                "dtDesaparecimento": "2024-02-24T12:00:00",
                "dataLocalizacao": null,
                "encontradoVivo": true,
                "localDesaparecimentoConcat": "PARQUE ATALAIA - Cuiabá/MT",
                "ocorrenciaEntrevDesapDTO": {
                    "informacao": "A vítima saiu de casa e até o momento não retornou, familiares buscam por notícias.",
                    "vestimentasDesaparecido": "Vestido longo rosa"
                },
                "listaCartaz": null,
                "ocoId": 3987
            }
        },
        {
            "id": 8103,
            "nome": "PEDRO OLIVEIRA SANTOS",
            "idade": 24,
            "sexo": "MASCULINO",
            "vivo": true,
            "urlFoto": "https://s3.pjc.mt.gov.br/abitus.foto-pessoa/2024/02/54df744fa30d1884e486e5f245eee3bc00cca55d49e4090d7e4e2dfe9af5403c-1708624656829.jpg?X-Amz-Algorithm=AWS4-HMAC-SHA256&X-Amz-Credential=pjcmtminio%2F20240307%2Fus-east-1%2Fs3%2Faws4_request&X-Amz-Date=20240307T121329Z&X-Amz-Expires=600&X-Amz-SignedHeaders=host&X-Amz-Signature=74fcdf224cebcff6a578a140d8dedbb58e2e6b86c5aa26982f1e7229dcf4dd15",
            "ultimaOcorrencia": {
                "dtDesaparecimento": "2024-02-22T10:00:00",
                "dataLocalizacao": null,
                "encontradoVivo": true,
                "localDesaparecimentoConcat": "PEDRA NOVENTA - Cuiabá/MT",
                "ocorrenciaEntrevDesapDTO": {
                    "informacao": "A vítima que é da Bahia veio a passeio para Cuiabá e desde então a familia não teve mais contato, buscam por notícias.",
                    "vestimentasDesaparecido": "NÃO INFORMADO. "
                },
                "listaCartaz": null,
                "ocoId": 3967
            }
        }
    ],
    "pageable": {
        "sort": {
            "unsorted": false,
            "sorted": true,
            "empty": false
        },
        "pageNumber": 0,
        "pageSize": 10,
        "offset": 0,
        "paged": true,
        "unpaged": false
    },
    "totalPages": 77,
    "totalElements": 768,
    "last": false,
    "numberOfElements": 10,
    "first": true,
    "sort": {
        "unsorted": false,
        "sorted": true,
        "empty": false
    },
    "number": 0,
    "size": 10,
    "empty": false
}